^C:\USERS\JUN\DESKTOP\FILESTRUCTURE\FPHW_1\FPHW_1\DEBUG\MAIN.OBJ
C:\USERS\JUN\DESKTOP\FILESTRUCTURE\FPHW_1\DEBUG\FPHW_1.ILK
C:\USERS\JUN\DESKTOP\FILESTRUCTURE\FPHW_1\DEBUG\FPHW_1.EXE
C:\USERS\JUN\DESKTOP\FILESTRUCTURE\FPHW_1\DEBUG\FPHW_1.PDB
